Global policy index
…
countries <- distinct(policydb, Country)

##Blank dataframe with PolicyArena and SubPolicyArena
cleanFrame <- policydb %>% select("PolicyArea", "SubPArea") %>% distinct_all()
cleanFrame

## # A tibble: 67 x 2
##    PolicyArea                              SubPArea                             
##    <chr>                                   <chr>                                
##  1 Nutrition label standards and regulati~ "Mandatory nutrient lists on package~
##  2 Nutrition label standards and regulati~ "Trans fats included in mandatory nu~
##  3 Nutrition label standards and regulati~ "Clearly visible \"interpretative\" ~
##  4 Nutrition label standards and regulati~ "On-shelf labelling"                 
##  5 Nutrition label standards and regulati~ "Calorie and nutrient labelling on m~
##  6 Nutrition label standards and regulati~ "Warning labels on menus and display~
##  7 Nutrition label standards and regulati~ "Rules on nutrient claims (ie nutrie~
##  8 Nutrition label standards and regulati~ "Rules on health claims (ie nutrient~
##  9 Offer healthy food and set standards i~ "Fruit & vegetable initiatives in sc~
## 10 Offer healthy food and set standards i~ "Mandatory standards for food availa~
## # ... with 57 more rows
…
#Sub-policy areas
SubPas <- policydb %>% distinct(SubPArea)

The policies data consists of 899 policy actions.

Policy actions per country

These actions are located in 137 different countries. The number of policies identified in each country is listed below:

PA_countries <- policydb %>% count(Country, sort=TRUE, name = "Number of policy actions")

PA_countries

## # A tibble: 137 x 2
##    Country     `Number of policy actions`
##    <chr>                            <int>
##  1 UK                                  66
##  2 USA                                 50
##  3 Norway                              33
##  4 Portugal                            33
##  5 Malaysia                            23
##  6 Netherlands                         22
##  7 Poland                              21
##  8 Australia                           20
##  9 Germany                             20
## 10 Spain                               20
## # ... with 127 more rows

A hiearchical overview: Country -> Policy Area -> Sub- Policy area

country_hierch <- policydb %>% count(Country, PolicyArea, SubPArea)

country_hierch

## # A tibble: 800 x 4
##    Country             PolicyArea                 SubPArea                     n
##    <chr>               <chr>                      <chr>                    <int>
##  1 Afghanistan         Inform people about food ~ Development and communi~     1
##  2 Albania             Inform people about food ~ Development and communi~     1
##  3 American Samoa      Harness supply chain and ~ Governance structures f~     1
##  4 Antigua and Barbuda Harness supply chain and ~ Governance structures f~     1
##  5 Antigua and Barbuda Inform people about food ~ Development and communi~     1
##  6 Antigua and Barbuda Inform people about food ~ Public awareness, mass ~     1
##  7 Argentina           Improve nutritional quali~ Mandatory limits on lev~     1
##  8 Argentina           Improve nutritional quali~ Mandatory removal of tr~     1
##  9 Argentina           Improve nutritional quali~ Voluntary reformulation~     1
## 10 Argentina           Inform people about food ~ Development and communi~     1
## # ... with 790 more rows

Policy hierarchy

#filter(Country=="Norway") Lage en funksjon som tester alle land opp mot hverandre og hiearkiene? Hvor er man like etc?

PA_hierch <- policydb %>% count(PolicyArea, SubPArea, sort=TRUE, name = "Number of policy actions")

PA_hierch

## # A tibble: 67 x 3
##    PolicyArea                    SubPArea                     `Number of policy~
##    <chr>                         <chr>                                     <int>
##  1 Inform people about food and~ Development and communicati~                 88
##  2 Nutrition label standards an~ Mandatory nutrient lists on~                 62
##  3 Use economic tools to addres~ Health-related food taxes                    50
##  4 Offer healthy food and set s~ Mandatory standards for foo~                 48
##  5 Improve nutritional quality ~ Voluntary reformulation of ~                 44
##  6 Nutrition label standards an~ Rules on nutrient claims (i~                 44
##  7 Nutrition label standards an~ Rules on health claims (ie ~                 39
##  8 Inform people about food and~ Public awareness, mass medi~                 37
##  9 Offer healthy food and set s~ Standards in other specific~                 35
## 10 Harness supply chain and act~ Governance structures for m~                 34
## # ... with 57 more rows
…
Sub-policy areas

PA_SPA <- policydb %>% count(PolicyArea, SubPArea, sort=TRUE, name = "Number of policy actions")

PA_SPA

## # A tibble: 67 x 3
##    PolicyArea                    SubPArea                     `Number of policy~
##    <chr>                         <chr>                                     <int>
##  1 Inform people about food and~ Development and communicati~                 88
##  2 Nutrition label standards an~ Mandatory nutrient lists on~                 62
##  3 Use economic tools to addres~ Health-related food taxes                    50
##  4 Offer healthy food and set s~ Mandatory standards for foo~                 48
##  5 Improve nutritional quality ~ Voluntary reformulation of ~                 44
##  6 Nutrition label standards an~ Rules on nutrient claims (i~                 44
##  7 Nutrition label standards an~ Rules on health claims (ie ~                 39
##  8 Inform people about food and~ Public awareness, mass medi~                 37
##  9 Offer healthy food and set s~ Standards in other specific~                 35
## 10 Harness supply chain and act~ Governance structures for m~                 34
## # ... with 57 more rows
…
PAreas <- policydb %>% distinct(PolicyArea) #List of PAreas

vector_PAr <- c(t(PAreas)) #Make into character strings and list

short_v_PAr <- c("N", "O", "U", "R", "I", "S", "H", "I2", "N2", "G")

countrylist <- c(t(countries))

GI_blank <- countries

GI_blank[ , c(short_v_PAr)] <- NA #eller short_V_PAr

GI_blank

## # A tibble: 137 x 11
##    Country    N     O     U     R     I     S     H     I2    N2    G    
##    <chr>      <lgl> <lgl> <lgl> <lgl> <lgl> <lgl> <lgl> <lgl> <lgl> <lgl>
##  1 Australia  NA    NA    NA    NA    NA    NA    NA    NA    NA    NA   
##  2 Austria    NA    NA    NA    NA    NA    NA    NA    NA    NA    NA   
##  3 Bahamas    NA    NA    NA    NA    NA    NA    NA    NA    NA    NA   
##  4 Belgium    NA    NA    NA    NA    NA    NA    NA    NA    NA    NA   
##  5 Bulgaria   NA    NA    NA    NA    NA    NA    NA    NA    NA    NA   
##  6 Canada     NA    NA    NA    NA    NA    NA    NA    NA    NA    NA   
##  7 Chile      NA    NA    NA    NA    NA    NA    NA    NA    NA    NA   
##  8 China      NA    NA    NA    NA    NA    NA    NA    NA    NA    NA   
##  9 Colombia   NA    NA    NA    NA    NA    NA    NA    NA    NA    NA   
## 10 Costa Rica NA    NA    NA    NA    NA    NA    NA    NA    NA    NA   
## # ... with 127 more rows

Fill table with true or false

country_hierch

## # A tibble: 800 x 4
##    Country             PolicyArea                 SubPArea                     n
##    <chr>               <chr>                      <chr>                    <int>
##  1 Afghanistan         Inform people about food ~ Development and communi~     1
##  2 Albania             Inform people about food ~ Development and communi~     1
##  3 American Samoa      Harness supply chain and ~ Governance structures f~     1
##  4 Antigua and Barbuda Harness supply chain and ~ Governance structures f~     1
##  5 Antigua and Barbuda Inform people about food ~ Development and communi~     1
##  6 Antigua and Barbuda Inform people about food ~ Public awareness, mass ~     1
##  7 Argentina           Improve nutritional quali~ Mandatory limits on lev~     1
##  8 Argentina           Improve nutritional quali~ Mandatory removal of tr~     1
##  9 Argentina           Improve nutritional quali~ Voluntary reformulation~     1
## 10 Argentina           Inform people about food ~ Development and communi~     1
## # ... with 790 more rows
…
PA_level_TF <- truef %>%
  select("Country", "PolicyArea","PolicyActionImplemented") %>% 
  right_join(KEY_PAletter, "PolicyArea") %>%
  select(c("Country", "PA_short")) %>% distinct() %>%
  pivot_wider(names_from = "PA_short", values_from = "PA_short") %>% 
  mutate(
    across(c("N", "O", "U", "R", "I", "S", "H", "I2", "N2", "G"), 
           ~if_else(!is.na(.), 1, 0)
           )
    )
                                                          
PA_level_TF

## # A tibble: 137 x 11
##    Country              I2     H     I     N     G     O     R     S     U    N2
##    <chr>             <dbl> <dbl> <dbl> <dbl> <dbl> <dbl> <dbl> <dbl> <dbl> <dbl>
##  1 Afghanistan           1     0     0     0     0     0     0     0     0     0
##  2 Albania               1     0     0     0     0     0     0     0     0     0
##  3 American Samoa        0     1     0     0     0     0     0     0     0     0
##  4 Antigua and Barb~     1     1     0     0     0     0     0     0     0     0
##  5 Argentina             1     0     1     1     0     0     0     0     0     0
##  6 Australia             1     0     1     1     1     1     1     0     0     0
##  7 Austria               1     0     1     1     1     1     0     0     0     0
##  8 Bahamas               1     1     0     1     0     0     0     0     0     0
##  9 Bahrain               0     0     0     1     0     1     0     1     1     0
## 10 Bangladesh            1     0     0     0     0     0     0     0     0     0
## # ... with 127 more rows
…
